{
	"info": {
		"_postman_id": "d42e3e1c-7499-4b4a-8bc6-e736c0bce287",
		"name": "Modules Collection",
		"schema": "https://schema.getpostman.com/json/collection/v2.1.0/collection.json"
	},
	"item": [
		{
			"name": "GET All Tasks Request",
			"request": {
				"method": "GET",
				"header": [],
				"url": {
					"raw": "localhost:3001/tasks",
					"host": [
						"localhost"
					],
					"port": "3001",
					"path": [
						"tasks"
					]
				}
			},
			"response": []
		},
		{
			"name": "Post New Task Request",
			"request": {
				"method": "POST",
				"header": [],
				"body": {
					"mode": "raw",
					"raw": "{\r\n    \"name\" : \"Cook\"\r\n}",
					"options": {
						"raw": {
							"language": "json"
						}
					}
				},
				"url": {
					"raw": "localhost:3001/tasks",
					"host": [
						"localhost"
					],
					"port": "3001",
					"path": [
						"tasks"
					]
				}
			},
			"response": []
		},
		{
			"name": "Delete Task",
			"request": {
				"method": "DELETE",
				"header": [],
				"url": {
					"raw": "localhost:3001/tasks/617a54b5a9c76d626c304019",
					"host": [
						"localhost"
					],
					"port": "3001",
					"path": [
						"tasks",
						"617a54b5a9c76d626c304019"
					]
				}
			},
			"response": []
		},
		{
			"name": "Update Task",
			"request": {
				"method": "PUT",
				"header": [],
				"body": {
					"mode": "raw",
					"raw": "{\r\n    \"name\" : \"Wake up\"\r\n}",
					"options": {
						"raw": {
							"language": "json"
						}
					}
				},
				"url": {
					"raw": "localhost:3001/tasks/617b644a94ce767e688db859",
					"host": [
						"localhost"
					],
					"port": "3001",
					"path": [
						"tasks",
						"617b644a94ce767e688db859"
					]
				}
			},
			"response": []
		},
		{
			"name": "Activity - GET Task Request",
			"request": {
				"method": "GET",
				"header": [],
				"url": {
					"raw": "localhost:3001/tasks/617b644a94ce767e688db859",
					"host": [
						"localhost"
					],
					"port": "3001",
					"path": [
						"tasks",
						"617b644a94ce767e688db859"
					]
				}
			},
			"response": []
		},
		{
			"name": "Activity - Complete Task Request",
			"request": {
				"method": "PUT",
				"header": [],
				"url": {
					"raw": "localhost:3001/tasks/617b644a94ce767e688db859/complete",
					"host": [
						"localhost"
					],
					"port": "3001",
					"path": [
						"tasks",
						"617b644a94ce767e688db859",
						"complete"
					]
				}
			},
			"response": []
		}
	]
}